<?xml version="1.0" encoding="UTF-8" standalone="no"?><svg xmlns="http://www.w3.org/2000/svg" xmlns:xlink="http://www.w3.org/1999/xlink" contentScriptType="application/ecmascript" contentStyleType="text/css" height="1066px" preserveAspectRatio="none" style="width:856px;height:1066px;background:#FFFFFF;" version="1.1" viewBox="0 0 856 1066" width="856px" zoomAndPan="magnify"><defs><filter height="300%" id="f11c3xlqcjumnc" width="300%" x="-1" y="-1"><feGaussianBlur result="blurOut" stdDeviation="2.0"/><feColorMatrix in="blurOut" result="blurOut2" type="matrix" values="0 0 0 0 0 0 0 0 0 0 0 0 0 0 0 0 0 0 .4 0"/><feOffset dx="4.0" dy="4.0" in="blurOut2" result="blurOut3"/><feBlend in="SourceGraphic" in2="blurOut3" mode="normal"/></filter></defs><g><!--MD5=[ff8cb9d4a221403e335a08775a3cd07c]
class Singleton_JsonManager--><rect codeLine="2" fill="#FEFECE" filter="url(#f11c3xlqcjumnc)" height="546.0938" id="Singleton_JsonManager" style="stroke:#A80036;stroke-width:1.5;" width="398" x="402.26" y="173.5"/><ellipse cx="530.01" cy="189.5" fill="#ADD1B2" rx="11" ry="11" style="stroke:#A80036;stroke-width:1.0;"/><path d="M532.7756,185.375 Q532.9319,185.1563 533.1194,185.0469 Q533.3069,184.9375 533.5256,184.9375 Q533.9006,184.9375 534.135,185.1953 Q534.3694,185.4531 534.3694,186.0625 L534.3694,187.5156 Q534.3694,188.125 534.135,188.3906 Q533.9006,188.6563 533.5256,188.6563 Q533.1819,188.6563 532.9788,188.4531 Q532.7756,188.2656 532.6663,187.75 Q532.6194,187.3906 532.4319,187.2031 Q532.1038,186.8281 531.4944,186.6094 Q530.885,186.3906 530.26,186.3906 Q529.4944,186.3906 528.8616,186.7188 Q528.2288,187.0469 527.7366,187.7969 Q527.2444,188.5469 527.2444,189.5781 L527.2444,190.6719 Q527.2444,191.9063 528.135,192.7266 Q529.0256,193.5469 530.6194,193.5469 Q531.5569,193.5469 532.2131,193.2969 Q532.6038,193.1406 533.0256,192.7031 Q533.2913,192.4375 533.4397,192.3594 Q533.5881,192.2813 533.7913,192.2813 Q534.1194,192.2813 534.3772,192.5391 Q534.635,192.7969 534.635,193.1406 Q534.635,193.4844 534.2913,193.8906 Q533.7913,194.4688 532.9944,194.7969 Q531.9163,195.25 530.6194,195.25 Q529.1038,195.25 527.9006,194.625 Q526.9163,194.125 526.2288,193.0547 Q525.5413,191.9844 525.5413,190.7031 L525.5413,189.5469 Q525.5413,188.2188 526.1584,187.0703 Q526.7756,185.9219 527.8694,185.3047 Q528.9631,184.6875 530.1975,184.6875 Q530.9319,184.6875 531.5803,184.8516 Q532.2288,185.0156 532.7756,185.375 Z " fill="#000000"/><text fill="#000000" font-family="sans-serif" font-size="12" lengthAdjust="spacing" textLength="134" x="550.51" y="194.4102">Singleton_JsonManager</text><line style="stroke:#A80036;stroke-width:1.5;" x1="403.26" x2="799.26" y1="205.5" y2="205.5"/><text fill="#000000" font-family="sans-serif" font-size="11" lengthAdjust="spacing" textLength="245" x="422.26" y="220.9189">SerieUploadFolderPath : string = "/Runtime/Upload/"</text><text fill="#000000" font-family="sans-serif" font-size="11" lengthAdjust="spacing" textLength="333" x="422.26" y="234.7549">SerieDownloadFolderPath : string = "/Json_Series/Download/Series/"</text><text fill="#000000" font-family="sans-serif" font-size="11" lengthAdjust="spacing" textLength="372" x="422.26" y="248.5908">TribiewJsonDownloadFolderPath : string = "/Json_Series/Download/Tribiew/"</text><ellipse cx="413.26" cy="258.0078" rx="3" ry="3" style="stroke:#038048;stroke-width:1.0;fill:none;"/><text fill="#000000" font-family="sans-serif" font-size="11" lengthAdjust="spacing" text-decoration="underline" textLength="151" x="422.26" y="262.4268">useLocalTestPath : bool = false</text><ellipse cx="413.26" cy="271.8438" rx="3" ry="3" style="stroke:#038048;stroke-width:1.0;fill:none;"/><text fill="#000000" font-family="sans-serif" font-size="11" lengthAdjust="spacing" textLength="226" x="422.26" y="276.2627">«event» jsonLoaded : OnJsonLoadingComplete</text><line style="stroke:#A80036;stroke-width:1.5;" x1="403.26" x2="799.26" y1="282.6797" y2="282.6797"/><text fill="#000000" font-family="sans-serif" font-size="11" lengthAdjust="spacing" text-decoration="underline" textLength="110" x="422.26" y="298.0986">CreateInstance() : void</text><polygon fill="#FFFF44" points="413.26,302.5156,417.26,306.5156,413.26,310.5156,409.26,306.5156" style="stroke:#B38D22;stroke-width:1.0;"/><text fill="#000000" font-family="sans-serif" font-size="11" lengthAdjust="spacing" textLength="115" x="422.26" y="311.9346">«override» Start() : void</text><rect fill="#F24D5C" height="6" style="stroke:#C82930;stroke-width:1.0;" width="6" x="410.26" y="318.3516"/><text fill="#000000" font-family="sans-serif" font-size="11" lengthAdjust="spacing" textLength="50" x="422.26" y="325.7705">Init() : void</text><ellipse cx="413.26" cy="335.1875" fill="#84BE84" rx="3" ry="3" style="stroke:#038048;stroke-width:1.0;"/><text fill="#000000" font-family="sans-serif" font-size="11" lengthAdjust="spacing" textLength="174" x="422.26" y="339.6064">waitInstanceCreated() : IEnumerator</text><polygon fill="#FFFF44" points="413.26,344.0234,417.26,348.0234,413.26,352.0234,409.26,348.0234" style="stroke:#B38D22;stroke-width:1.0;"/><text fill="#000000" font-family="sans-serif" font-size="11" lengthAdjust="spacing" textLength="123" x="422.26" y="353.4424">Singleton_JsonManager()</text><ellipse cx="413.26" cy="362.8594" fill="#84BE84" rx="3" ry="3" style="stroke:#038048;stroke-width:1.0;"/><text fill="#000000" font-family="sans-serif" font-size="11" lengthAdjust="spacing" textLength="242" x="422.26" y="367.2783">UploadInfoJsonDummy(_newInfojson:string) : void</text><ellipse cx="413.26" cy="376.6953" fill="#84BE84" rx="3" ry="3" style="stroke:#038048;stroke-width:1.0;"/><text fill="#000000" font-family="sans-serif" font-size="11" lengthAdjust="spacing" textLength="293" x="422.26" y="381.1143">UploadInfoJson(_newInfojson:string, isPathToFile:bool) : void</text><ellipse cx="413.26" cy="390.5313" fill="#84BE84" rx="3" ry="3" style="stroke:#038048;stroke-width:1.0;"/><text fill="#000000" font-family="sans-serif" font-size="11" lengthAdjust="spacing" textLength="145" x="422.26" y="394.9502">UploadDefaultInfoJson() : void</text><ellipse cx="413.26" cy="404.3672" fill="#84BE84" rx="3" ry="3" style="stroke:#038048;stroke-width:1.0;"/><text fill="#000000" font-family="sans-serif" font-size="11" lengthAdjust="spacing" textLength="248" x="422.26" y="408.7861">DownloadInfoJsonDummy(_returnPath:string) : void</text><ellipse cx="413.26" cy="418.2031" fill="#84BE84" rx="3" ry="3" style="stroke:#038048;stroke-width:1.0;"/><text fill="#000000" font-family="sans-serif" font-size="11" lengthAdjust="spacing" textLength="220" x="422.26" y="422.6221">DownloadInfoJson(_returnPath:string) : string</text><ellipse cx="413.26" cy="432.0391" fill="#84BE84" rx="3" ry="3" style="stroke:#038048;stroke-width:1.0;"/><text fill="#000000" font-family="sans-serif" font-size="11" lengthAdjust="spacing" textLength="297" x="422.26" y="436.458">UploadOneSerieAndUpdateInfoJson(_serieName:string) : void</text><ellipse cx="413.26" cy="445.875" fill="#84BE84" rx="3" ry="3" style="stroke:#038048;stroke-width:1.0;"/><text fill="#000000" font-family="sans-serif" font-size="11" lengthAdjust="spacing" textLength="165" x="422.26" y="450.2939">DownloadAllSeries() : List&lt;string&gt;</text><ellipse cx="413.26" cy="459.7109" fill="#84BE84" rx="3" ry="3" style="stroke:#038048;stroke-width:1.0;"/><text fill="#000000" font-family="sans-serif" font-size="11" lengthAdjust="spacing" textLength="238" x="422.26" y="464.1299">DownloadSerieByName(_serieName:string) : void</text><ellipse cx="413.26" cy="473.5469" fill="#84BE84" rx="3" ry="3" style="stroke:#038048;stroke-width:1.0;"/><text fill="#000000" font-family="sans-serif" font-size="11" lengthAdjust="spacing" textLength="170" x="422.26" y="477.9658">UploadTribiewNewsDummy() : void</text><ellipse cx="413.26" cy="487.3828" fill="#84BE84" rx="3" ry="3" style="stroke:#038048;stroke-width:1.0;"/><text fill="#000000" font-family="sans-serif" font-size="11" lengthAdjust="spacing" textLength="317" x="422.26" y="491.8018">UploadTribiewNews(_newInfojson:string, isPathToFile:bool) : void</text><ellipse cx="413.26" cy="501.2188" fill="#84BE84" rx="3" ry="3" style="stroke:#038048;stroke-width:1.0;"/><text fill="#000000" font-family="sans-serif" font-size="11" lengthAdjust="spacing" textLength="234" x="422.26" y="505.6377">UploadJson(_s3path:string, jsonFile:string) : void</text><ellipse cx="413.26" cy="515.0547" fill="#84BE84" rx="3" ry="3" style="stroke:#038048;stroke-width:1.0;"/><text fill="#000000" font-family="sans-serif" font-size="11" lengthAdjust="spacing" textLength="186" x="422.26" y="519.4736">DownloadTribiewNewsDummy() : void</text><ellipse cx="413.26" cy="528.8906" fill="#84BE84" rx="3" ry="3" style="stroke:#038048;stroke-width:1.0;"/><text fill="#000000" font-family="sans-serif" font-size="11" lengthAdjust="spacing" textLength="245" x="422.26" y="533.3096">DownloadInfoSerieJson(_returnPath:string) : string</text><ellipse cx="413.26" cy="542.7266" fill="#84BE84" rx="3" ry="3" style="stroke:#038048;stroke-width:1.0;"/><text fill="#000000" font-family="sans-serif" font-size="11" lengthAdjust="spacing" textLength="187" x="422.26" y="547.1455">DownloadInfoSerieJsonDummy() : void</text><ellipse cx="413.26" cy="556.5625" fill="#84BE84" rx="3" ry="3" style="stroke:#038048;stroke-width:1.0;"/><text fill="#000000" font-family="sans-serif" font-size="11" lengthAdjust="spacing" textLength="244" x="422.26" y="560.9814">DownloadTribiewNews(_returnPath:string) : string</text><ellipse cx="413.26" cy="570.3984" fill="#84BE84" rx="3" ry="3" style="stroke:#038048;stroke-width:1.0;"/><text fill="#000000" font-family="sans-serif" font-size="11" lengthAdjust="spacing" textLength="166" x="422.26" y="574.8174">UploadTribiewShopDummy() : void</text><ellipse cx="413.26" cy="584.2344" fill="#84BE84" rx="3" ry="3" style="stroke:#038048;stroke-width:1.0;"/><text fill="#000000" font-family="sans-serif" font-size="11" lengthAdjust="spacing" textLength="306" x="422.26" y="588.6533">UploadShopNews(_newInfojson:string, isPathToFile:bool) : void</text><ellipse cx="413.26" cy="598.0703" fill="#84BE84" rx="3" ry="3" style="stroke:#038048;stroke-width:1.0;"/><text fill="#000000" font-family="sans-serif" font-size="11" lengthAdjust="spacing" textLength="182" x="422.26" y="602.4893">DownloadTribiewShopDummy() : void</text><ellipse cx="413.26" cy="611.9063" fill="#84BE84" rx="3" ry="3" style="stroke:#038048;stroke-width:1.0;"/><text fill="#000000" font-family="sans-serif" font-size="11" lengthAdjust="spacing" textLength="240" x="422.26" y="616.3252">DownloadTribiewShop(_returnPath:string) : string</text><ellipse cx="413.26" cy="625.7422" fill="#84BE84" rx="3" ry="3" style="stroke:#038048;stroke-width:1.0;"/><text fill="#000000" font-family="sans-serif" font-size="11" lengthAdjust="spacing" textLength="233" x="422.26" y="630.1611">DownloadFanartJson(_returnPath:string) : string</text><ellipse cx="413.26" cy="639.5781" fill="#84BE84" rx="3" ry="3" style="stroke:#038048;stroke-width:1.0;"/><text fill="#000000" font-family="sans-serif" font-size="11" lengthAdjust="spacing" textLength="175" x="422.26" y="643.9971">DownloadFanartJsonDummy() : void</text><ellipse cx="413.26" cy="653.4141" fill="#84BE84" rx="3" ry="3" style="stroke:#038048;stroke-width:1.0;"/><text fill="#000000" font-family="sans-serif" font-size="11" lengthAdjust="spacing" textLength="228" x="422.26" y="657.833">DownloadTeamJson(_returnPath:string) : string</text><ellipse cx="413.26" cy="667.25" fill="#84BE84" rx="3" ry="3" style="stroke:#038048;stroke-width:1.0;"/><text fill="#000000" font-family="sans-serif" font-size="11" lengthAdjust="spacing" textLength="170" x="422.26" y="671.6689">DownloadTeamJsonDummy() : void</text><ellipse cx="413.26" cy="681.0859" fill="#84BE84" rx="3" ry="3" style="stroke:#038048;stroke-width:1.0;"/><text fill="#000000" font-family="sans-serif" font-size="11" lengthAdjust="spacing" text-decoration="underline" textLength="193" x="422.26" y="685.5049">OpenJSON(_filePath:string) : JSONNode</text><ellipse cx="413.26" cy="694.9219" fill="#84BE84" rx="3" ry="3" style="stroke:#038048;stroke-width:1.0;"/><text fill="#000000" font-family="sans-serif" font-size="11" lengthAdjust="spacing" textLength="191" x="422.26" y="699.3408">DownloadAllTimestamps() : List&lt;string&gt;</text><ellipse cx="413.26" cy="708.7578" fill="#84BE84" rx="3" ry="3" style="stroke:#038048;stroke-width:1.0;"/><text fill="#000000" font-family="sans-serif" font-size="11" lengthAdjust="spacing" textLength="264" x="422.26" y="713.1768">DownloadTimestampByName(_serieName:string) : void</text><!--MD5=[faa1de4d7b17b110bcca917d9add068e]
class Singleton`1--><rect fill="#FEFECE" filter="url(#f11c3xlqcjumnc)" height="48" id="Singleton`1" style="stroke:#A80036;stroke-width:1.5;" width="95" x="193.76" y="796.5"/><ellipse cx="208.76" cy="812.5" fill="#ADD1B2" rx="11" ry="11" style="stroke:#A80036;stroke-width:1.0;"/><path d="M211.5256,808.375 Q211.6819,808.1563 211.8694,808.0469 Q212.0569,807.9375 212.2756,807.9375 Q212.6506,807.9375 212.885,808.1953 Q213.1194,808.4531 213.1194,809.0625 L213.1194,810.5156 Q213.1194,811.125 212.885,811.3906 Q212.6506,811.6563 212.2756,811.6563 Q211.9319,811.6563 211.7288,811.4531 Q211.5256,811.2656 211.4163,810.75 Q211.3694,810.3906 211.1819,810.2031 Q210.8538,809.8281 210.2444,809.6094 Q209.635,809.3906 209.01,809.3906 Q208.2444,809.3906 207.6116,809.7188 Q206.9788,810.0469 206.4866,810.7969 Q205.9944,811.5469 205.9944,812.5781 L205.9944,813.6719 Q205.9944,814.9063 206.885,815.7266 Q207.7756,816.5469 209.3694,816.5469 Q210.3069,816.5469 210.9631,816.2969 Q211.3538,816.1406 211.7756,815.7031 Q212.0413,815.4375 212.1897,815.3594 Q212.3381,815.2813 212.5413,815.2813 Q212.8694,815.2813 213.1272,815.5391 Q213.385,815.7969 213.385,816.1406 Q213.385,816.4844 213.0413,816.8906 Q212.5413,817.4688 211.7444,817.7969 Q210.6663,818.25 209.3694,818.25 Q207.8538,818.25 206.6506,817.625 Q205.6663,817.125 204.9788,816.0547 Q204.2913,814.9844 204.2913,813.7031 L204.2913,812.5469 Q204.2913,811.2188 204.9084,810.0703 Q205.5256,808.9219 206.6194,808.3047 Q207.7131,807.6875 208.9475,807.6875 Q209.6819,807.6875 210.3303,807.8516 Q210.9788,808.0156 211.5256,808.375 Z " fill="#000000"/><text fill="#000000" font-family="sans-serif" font-size="12" lengthAdjust="spacing" textLength="63" x="222.76" y="817.4102">Singleton`1</text><line style="stroke:#A80036;stroke-width:1.5;" x1="194.76" x2="287.76" y1="828.5" y2="828.5"/><line style="stroke:#A80036;stroke-width:1.5;" x1="194.76" x2="287.76" y1="836.5" y2="836.5"/><!--MD5=[9e28e023c5ed27ddb023635c7cd35978]
class Singleton_SpriteDownloader--><rect codeLine="41" fill="#FEFECE" filter="url(#f11c3xlqcjumnc)" height="131.0156" id="Singleton_SpriteDownloader" style="stroke:#A80036;stroke-width:1.5;" width="483" x="359.76" y="755"/><ellipse cx="518.01" cy="771" fill="#ADD1B2" rx="11" ry="11" style="stroke:#A80036;stroke-width:1.0;"/><path d="M520.7756,766.875 Q520.9319,766.6563 521.1194,766.5469 Q521.3069,766.4375 521.5256,766.4375 Q521.9006,766.4375 522.135,766.6953 Q522.3694,766.9531 522.3694,767.5625 L522.3694,769.0156 Q522.3694,769.625 522.135,769.8906 Q521.9006,770.1563 521.5256,770.1563 Q521.1819,770.1563 520.9788,769.9531 Q520.7756,769.7656 520.6663,769.25 Q520.6194,768.8906 520.4319,768.7031 Q520.1038,768.3281 519.4944,768.1094 Q518.885,767.8906 518.26,767.8906 Q517.4944,767.8906 516.8616,768.2188 Q516.2288,768.5469 515.7366,769.2969 Q515.2444,770.0469 515.2444,771.0781 L515.2444,772.1719 Q515.2444,773.4063 516.135,774.2266 Q517.0256,775.0469 518.6194,775.0469 Q519.5569,775.0469 520.2131,774.7969 Q520.6038,774.6406 521.0256,774.2031 Q521.2913,773.9375 521.4397,773.8594 Q521.5881,773.7813 521.7913,773.7813 Q522.1194,773.7813 522.3772,774.0391 Q522.635,774.2969 522.635,774.6406 Q522.635,774.9844 522.2913,775.3906 Q521.7913,775.9688 520.9944,776.2969 Q519.9163,776.75 518.6194,776.75 Q517.1038,776.75 515.9006,776.125 Q514.9163,775.625 514.2288,774.5547 Q513.5413,773.4844 513.5413,772.2031 L513.5413,771.0469 Q513.5413,769.7188 514.1584,768.5703 Q514.7756,767.4219 515.8694,766.8047 Q516.9631,766.1875 518.1975,766.1875 Q518.9319,766.1875 519.5803,766.3516 Q520.2288,766.5156 520.7756,766.875 Z " fill="#000000"/><text fill="#000000" font-family="sans-serif" font-size="12" lengthAdjust="spacing" textLength="158" x="538.51" y="775.9102">Singleton_SpriteDownloader</text><line style="stroke:#A80036;stroke-width:1.5;" x1="360.76" x2="841.76" y1="787" y2="787"/><ellipse cx="370.76" cy="798" rx="3" ry="3" style="stroke:#038048;stroke-width:1.0;fill:none;"/><text fill="#000000" font-family="sans-serif" font-size="11" lengthAdjust="spacing" textLength="93" x="379.76" y="802.4189">texture : Texture2D</text><ellipse cx="370.76" cy="811.8359" rx="3" ry="3" style="stroke:#038048;stroke-width:1.0;fill:none;"/><text fill="#000000" font-family="sans-serif" font-size="11" lengthAdjust="spacing" textLength="128" x="379.76" y="816.2549">textures : List&lt;Texture2D&gt;</text><line style="stroke:#A80036;stroke-width:1.5;" x1="360.76" x2="841.76" y1="822.6719" y2="822.6719"/><text fill="#000000" font-family="sans-serif" font-size="11" lengthAdjust="spacing" text-decoration="underline" textLength="110" x="379.76" y="838.0908">CreateInstance() : void</text><ellipse cx="370.76" cy="847.5078" fill="#84BE84" rx="3" ry="3" style="stroke:#038048;stroke-width:1.0;"/><text fill="#000000" font-family="sans-serif" font-size="11" lengthAdjust="spacing" text-decoration="underline" textLength="394" x="379.76" y="851.9268">DownloadImage(_url:string, multipleTexts:bool, callback:Action&lt;Texture2D&gt;) : void</text><rect fill="#F24D5C" height="6" style="stroke:#C82930;stroke-width:1.0;" width="6" x="367.76" y="858.3438"/><text fill="#000000" font-family="sans-serif" font-size="11" lengthAdjust="spacing" textLength="392" x="379.76" y="865.7627">GetText(_url:string, multipleTexts:bool, callback:Action&lt;Texture2D&gt;) : IEnumerator</text><ellipse cx="370.76" cy="875.1797" fill="#84BE84" rx="3" ry="3" style="stroke:#038048;stroke-width:1.0;"/><text fill="#000000" font-family="sans-serif" font-size="11" lengthAdjust="spacing" text-decoration="underline" textLength="457" x="379.76" y="879.5986">DownloadImage(url:string, onDiskName:string, callback:OnTextureDownloadingComplete) : void</text><!--MD5=[ba32f74cb7ed9952b318c97a810f2edb]
class Singleton_SpriteUploader--><rect codeLine="50" fill="#FEFECE" filter="url(#f11c3xlqcjumnc)" height="131.0156" id="Singleton_SpriteUploader" style="stroke:#A80036;stroke-width:1.5;" width="388" x="407.26" y="921"/><ellipse cx="526.01" cy="937" fill="#ADD1B2" rx="11" ry="11" style="stroke:#A80036;stroke-width:1.0;"/><path d="M528.7756,932.875 Q528.9319,932.6563 529.1194,932.5469 Q529.3069,932.4375 529.5256,932.4375 Q529.9006,932.4375 530.135,932.6953 Q530.3694,932.9531 530.3694,933.5625 L530.3694,935.0156 Q530.3694,935.625 530.135,935.8906 Q529.9006,936.1563 529.5256,936.1563 Q529.1819,936.1563 528.9788,935.9531 Q528.7756,935.7656 528.6663,935.25 Q528.6194,934.8906 528.4319,934.7031 Q528.1038,934.3281 527.4944,934.1094 Q526.885,933.8906 526.26,933.8906 Q525.4944,933.8906 524.8616,934.2188 Q524.2288,934.5469 523.7366,935.2969 Q523.2444,936.0469 523.2444,937.0781 L523.2444,938.1719 Q523.2444,939.4063 524.135,940.2266 Q525.0256,941.0469 526.6194,941.0469 Q527.5569,941.0469 528.2131,940.7969 Q528.6038,940.6406 529.0256,940.2031 Q529.2913,939.9375 529.4397,939.8594 Q529.5881,939.7813 529.7913,939.7813 Q530.1194,939.7813 530.3772,940.0391 Q530.635,940.2969 530.635,940.6406 Q530.635,940.9844 530.2913,941.3906 Q529.7913,941.9688 528.9944,942.2969 Q527.9163,942.75 526.6194,942.75 Q525.1038,942.75 523.9006,942.125 Q522.9163,941.625 522.2288,940.5547 Q521.5413,939.4844 521.5413,938.2031 L521.5413,937.0469 Q521.5413,935.7188 522.1584,934.5703 Q522.7756,933.4219 523.8694,932.8047 Q524.9631,932.1875 526.1975,932.1875 Q526.9319,932.1875 527.5803,932.3516 Q528.2288,932.5156 528.7756,932.875 Z " fill="#000000"/><text fill="#000000" font-family="sans-serif" font-size="12" lengthAdjust="spacing" textLength="142" x="546.51" y="941.9102">Singleton_SpriteUploader</text><line style="stroke:#A80036;stroke-width:1.5;" x1="408.26" x2="794.26" y1="953" y2="953"/><ellipse cx="418.26" cy="964" rx="3" ry="3" style="stroke:#038048;stroke-width:1.0;fill:none;"/><text fill="#000000" font-family="sans-serif" font-size="11" lengthAdjust="spacing" textLength="109" x="427.26" y="968.4189">ResultText : Text = null</text><text fill="#000000" font-family="sans-serif" font-size="11" lengthAdjust="spacing" textLength="137" x="427.26" y="982.2549">S3BucketName : string = null</text><line style="stroke:#A80036;stroke-width:1.5;" x1="408.26" x2="794.26" y1="988.6719" y2="988.6719"/><text fill="#000000" font-family="sans-serif" font-size="11" lengthAdjust="spacing" text-decoration="underline" textLength="110" x="427.26" y="1004.0908">CreateInstance() : void</text><ellipse cx="418.26" cy="1013.5078" fill="#84BE84" rx="3" ry="3" style="stroke:#038048;stroke-width:1.0;"/><text fill="#000000" font-family="sans-serif" font-size="11" lengthAdjust="spacing" text-decoration="underline" textLength="307" x="427.26" y="1017.9268">UploadImage(_image:Texture2D, _url:string, _name:string) : void</text><rect fill="#F24D5C" height="6" style="stroke:#C82930;stroke-width:1.0;" width="6" x="415.26" y="1024.3438"/><text fill="#000000" font-family="sans-serif" font-size="11" lengthAdjust="spacing" text-decoration="underline" textLength="362" x="427.26" y="1031.7627">UploadCoroutine(_image:Texture2D, _url:string, _name:string) : IEnumerator</text><text fill="#000000" font-family="sans-serif" font-size="11" lengthAdjust="spacing" textLength="234" x="427.26" y="1045.5986">duplicateTexture(source:Texture2D) : Texture2D</text><!--MD5=[cd42dd7e6786dca96442332e75257aa5]
class TextureToBase64Tool--><rect codeLine="59" fill="#FEFECE" filter="url(#f11c3xlqcjumnc)" height="131.0156" id="TextureToBase64Tool" style="stroke:#A80036;stroke-width:1.5;" width="305" x="448.76" y="7"/><ellipse cx="536.51" cy="23" fill="#ADD1B2" rx="11" ry="11" style="stroke:#A80036;stroke-width:1.0;"/><path d="M539.2756,18.875 Q539.4319,18.6563 539.6194,18.5469 Q539.8069,18.4375 540.0256,18.4375 Q540.4006,18.4375 540.635,18.6953 Q540.8694,18.9531 540.8694,19.5625 L540.8694,21.0156 Q540.8694,21.625 540.635,21.8906 Q540.4006,22.1563 540.0256,22.1563 Q539.6819,22.1563 539.4788,21.9531 Q539.2756,21.7656 539.1663,21.25 Q539.1194,20.8906 538.9319,20.7031 Q538.6038,20.3281 537.9944,20.1094 Q537.385,19.8906 536.76,19.8906 Q535.9944,19.8906 535.3616,20.2188 Q534.7288,20.5469 534.2366,21.2969 Q533.7444,22.0469 533.7444,23.0781 L533.7444,24.1719 Q533.7444,25.4063 534.635,26.2266 Q535.5256,27.0469 537.1194,27.0469 Q538.0569,27.0469 538.7131,26.7969 Q539.1038,26.6406 539.5256,26.2031 Q539.7913,25.9375 539.9397,25.8594 Q540.0881,25.7813 540.2913,25.7813 Q540.6194,25.7813 540.8772,26.0391 Q541.135,26.2969 541.135,26.6406 Q541.135,26.9844 540.7913,27.3906 Q540.2913,27.9688 539.4944,28.2969 Q538.4163,28.75 537.1194,28.75 Q535.6038,28.75 534.4006,28.125 Q533.4163,27.625 532.7288,26.5547 Q532.0413,25.4844 532.0413,24.2031 L532.0413,23.0469 Q532.0413,21.7188 532.6584,20.5703 Q533.2756,19.4219 534.3694,18.8047 Q535.4631,18.1875 536.6975,18.1875 Q537.4319,18.1875 538.0803,18.3516 Q538.7288,18.5156 539.2756,18.875 Z " fill="#000000"/><text fill="#000000" font-family="sans-serif" font-size="12" lengthAdjust="spacing" textLength="121" x="557.01" y="27.9102">TextureToBase64Tool</text><line style="stroke:#A80036;stroke-width:1.5;" x1="449.76" x2="752.76" y1="39" y2="39"/><rect fill="none" height="6" style="stroke:#C82930;stroke-width:1.0;" width="6" x="456.76" y="47"/><text fill="#000000" font-family="sans-serif" font-size="11" lengthAdjust="spacing" textLength="107" x="468.76" y="54.4189">m_texture : Texture2D</text><rect fill="none" height="6" style="stroke:#C82930;stroke-width:1.0;" width="6" x="456.76" y="60.8359"/><text fill="#000000" font-family="sans-serif" font-size="11" lengthAdjust="spacing" textLength="134" x="468.76" y="68.2549">m_encodedData : string = ""</text><line style="stroke:#A80036;stroke-width:1.5;" x1="449.76" x2="752.76" y1="74.6719" y2="74.6719"/><ellipse cx="459.76" cy="85.6719" fill="#84BE84" rx="3" ry="3" style="stroke:#038048;stroke-width:1.0;"/><text fill="#000000" font-family="sans-serif" font-size="11" lengthAdjust="spacing" text-decoration="underline" textLength="230" x="468.76" y="90.0908">Texture2DToBase64(texture:Texture2D) : string</text><ellipse cx="459.76" cy="99.5078" fill="#84BE84" rx="3" ry="3" style="stroke:#038048;stroke-width:1.0;"/><text fill="#000000" font-family="sans-serif" font-size="11" lengthAdjust="spacing" text-decoration="underline" textLength="260" x="468.76" y="103.9268">Base64ToTexture2D(encodedData:string) : Texture2D</text><rect fill="#F24D5C" height="6" style="stroke:#C82930;stroke-width:1.0;" width="6" x="456.76" y="110.3438"/><text fill="#000000" font-family="sans-serif" font-size="11" lengthAdjust="spacing" text-decoration="underline" textLength="279" x="468.76" y="117.7627">GetImageSize(imageData:byte[], width:int, height:int) : void</text><rect fill="#F24D5C" height="6" style="stroke:#C82930;stroke-width:1.0;" width="6" x="456.76" y="124.1797"/><text fill="#000000" font-family="sans-serif" font-size="11" lengthAdjust="spacing" text-decoration="underline" textLength="193" x="468.76" y="131.5986">ReadInt(imageData:byte[], offset:int) : int</text><!--MD5=[83b3cf3d23d77c6f1e1b5291a241bc2a]
class MonoBehaviour--><rect fill="#FEFECE" filter="url(#f11c3xlqcjumnc)" height="48" id="MonoBehaviour" style="stroke:#A80036;stroke-width:1.5;" width="117" x="182.76" y="48.5"/><ellipse cx="197.76" cy="64.5" fill="#ADD1B2" rx="11" ry="11" style="stroke:#A80036;stroke-width:1.0;"/><path d="M200.5256,60.375 Q200.6819,60.1563 200.8694,60.0469 Q201.0569,59.9375 201.2756,59.9375 Q201.6506,59.9375 201.885,60.1953 Q202.1194,60.4531 202.1194,61.0625 L202.1194,62.5156 Q202.1194,63.125 201.885,63.3906 Q201.6506,63.6563 201.2756,63.6563 Q200.9319,63.6563 200.7288,63.4531 Q200.5256,63.2656 200.4163,62.75 Q200.3694,62.3906 200.1819,62.2031 Q199.8538,61.8281 199.2444,61.6094 Q198.635,61.3906 198.01,61.3906 Q197.2444,61.3906 196.6116,61.7188 Q195.9788,62.0469 195.4866,62.7969 Q194.9944,63.5469 194.9944,64.5781 L194.9944,65.6719 Q194.9944,66.9063 195.885,67.7266 Q196.7756,68.5469 198.3694,68.5469 Q199.3069,68.5469 199.9631,68.2969 Q200.3538,68.1406 200.7756,67.7031 Q201.0413,67.4375 201.1897,67.3594 Q201.3381,67.2813 201.5413,67.2813 Q201.8694,67.2813 202.1272,67.5391 Q202.385,67.7969 202.385,68.1406 Q202.385,68.4844 202.0413,68.8906 Q201.5413,69.4688 200.7444,69.7969 Q199.6663,70.25 198.3694,70.25 Q196.8538,70.25 195.6506,69.625 Q194.6663,69.125 193.9788,68.0547 Q193.2913,66.9844 193.2913,65.7031 L193.2913,64.5469 Q193.2913,63.2188 193.9084,62.0703 Q194.5256,60.9219 195.6194,60.3047 Q196.7131,59.6875 197.9475,59.6875 Q198.6819,59.6875 199.3303,59.8516 Q199.9788,60.0156 200.5256,60.375 Z " fill="#000000"/><text fill="#000000" font-family="sans-serif" font-size="12" lengthAdjust="spacing" textLength="85" x="211.76" y="69.4102">MonoBehaviour</text><line style="stroke:#A80036;stroke-width:1.5;" x1="183.76" x2="298.76" y1="80.5" y2="80.5"/><line style="stroke:#A80036;stroke-width:1.5;" x1="183.76" x2="298.76" y1="88.5" y2="88.5"/><!--MD5=[3d71ec3400428d75b555ec181b96c610]
reverse link Singleton`1 to Singleton_JsonManager--><path codeLine="40" d="M279.44,781.65 C309.66,750.08 354.85,702.87 401.85,653.77 " fill="none" id="Singleton`1-backto-Singleton_JsonManager" style="stroke:#A80036;stroke-width:1.0;"/><polygon fill="none" points="284.36,786.64,265.47,796.25,274.24,776.96,284.36,786.64" style="stroke:#A80036;stroke-width:1.0;"/><text fill="#000000" font-family="sans-serif" font-size="13" lengthAdjust="spacing" textLength="154" x="97.9426" y="785.5261">&lt;Singleton_JsonManager&gt;</text><!--MD5=[ec65bc51717b19cd5e385e9c9b3e302b]
reverse link Singleton`1 to Singleton_SpriteDownloader--><path codeLine="49" d="M309.29,820.5 C324.52,820.5 341.55,820.5 359.53,820.5 " fill="none" id="Singleton`1-backto-Singleton_SpriteDownloader" style="stroke:#A80036;stroke-width:1.0;"/><polygon fill="none" points="309.06,827.5,289.06,820.5,309.06,813.5,309.06,827.5" style="stroke:#A80036;stroke-width:1.0;"/><text fill="#000000" font-family="sans-serif" font-size="13" lengthAdjust="spacing" textLength="178" x="6" y="854.8434">&lt;Singleton_SpriteDownloader&gt;</text><!--MD5=[3d68f80e8d603c4455c4cc3fae7319cc]
reverse link Singleton`1 to Singleton_SpriteUploader--><path codeLine="58" d="M287.74,857.18 C308.78,872.93 334.63,890.62 359.76,903.5 C374.89,911.26 390.91,918.56 407.21,925.36 " fill="none" id="Singleton`1-backto-Singleton_SpriteUploader" style="stroke:#A80036;stroke-width:1.0;"/><polygon fill="none" points="283.27,862.57,271.67,844.84,291.79,851.47,283.27,862.57" style="stroke:#A80036;stroke-width:1.0;"/><text fill="#000000" font-family="sans-serif" font-size="13" lengthAdjust="spacing" textLength="162" x="97.9711" y="865.8544">&lt;Singleton_SpriteUploader&gt;</text><!--MD5=[c65b5b27f4e6d08bce434fdbc7cf63d4]
reverse link MonoBehaviour to TextureToBase64Tool--><path codeLine="67" d="M320.01,72.5 C357.7,72.5 404.32,72.5 448.64,72.5 " fill="none" id="MonoBehaviour-backto-TextureToBase64Tool" style="stroke:#A80036;stroke-width:1.0;"/><polygon fill="none" points="319.78,79.5,299.78,72.5,319.78,65.5,319.78,79.5" style="stroke:#A80036;stroke-width:1.0;"/><!--MD5=[cd72fd252e933646d6a1390a4fe6f25d]
@startuml
left to right direction
class Singleton_JsonManager {
    SerieUploadFolderPath : string = "/Runtime/Upload/"
    SerieDownloadFolderPath : string = "/Json_Series/Download/Series/"
    TribiewJsonDownloadFolderPath : string = "/Json_Series/Download/Tribiew/"
    + {static} useLocalTestPath : bool = false
    +  <<event>> jsonLoaded : OnJsonLoadingComplete 
    {static} CreateInstance() : void
    # <<override>> Start() : void
    - Init() : void
    + waitInstanceCreated() : IEnumerator
    # Singleton_JsonManager()
    + UploadInfoJsonDummy(_newInfojson:string) : void
    + UploadInfoJson(_newInfojson:string, isPathToFile:bool) : void
    + UploadDefaultInfoJson() : void
    + DownloadInfoJsonDummy(_returnPath:string) : void
    + DownloadInfoJson(_returnPath:string) : string
    + UploadOneSerieAndUpdateInfoJson(_serieName:string) : void
    + DownloadAllSeries() : List<string>
    + DownloadSerieByName(_serieName:string) : void
    + UploadTribiewNewsDummy() : void
    + UploadTribiewNews(_newInfojson:string, isPathToFile:bool) : void
    + UploadJson(_s3path:string, jsonFile:string) : void
    + DownloadTribiewNewsDummy() : void
    + DownloadInfoSerieJson(_returnPath:string) : string
    + DownloadInfoSerieJsonDummy() : void
    + DownloadTribiewNews(_returnPath:string) : string
    + UploadTribiewShopDummy() : void
    + UploadShopNews(_newInfojson:string, isPathToFile:bool) : void
    + DownloadTribiewShopDummy() : void
    + DownloadTribiewShop(_returnPath:string) : string
    + DownloadFanartJson(_returnPath:string) : string
    + DownloadFanartJsonDummy() : void
    + DownloadTeamJson(_returnPath:string) : string
    + DownloadTeamJsonDummy() : void
    + {static} OpenJSON(_filePath:string) : JSONNode
    + DownloadAllTimestamps() : List<string>
    + DownloadTimestampByName(_serieName:string) : void
}
"Singleton`1" "<Singleton_JsonManager>" <|- - Singleton_JsonManager
class Singleton_SpriteDownloader {
    {static} CreateInstance() : void
    + texture : Texture2D
    + textures : List<Texture2D>
    + {static} DownloadImage(_url:string, multipleTexts:bool, callback:Action<Texture2D>) : void
    - GetText(_url:string, multipleTexts:bool, callback:Action<Texture2D>) : IEnumerator
    + {static} DownloadImage(url:string, onDiskName:string, callback:OnTextureDownloadingComplete) : void
}
"Singleton`1" "<Singleton_SpriteDownloader>" <|- - Singleton_SpriteDownloader
class Singleton_SpriteUploader {
    + ResultText : Text = null
    S3BucketName : string = null
    {static} CreateInstance() : void
    + {static} UploadImage(_image:Texture2D, _url:string, _name:string) : void
    - {static} UploadCoroutine(_image:Texture2D, _url:string, _name:string) : IEnumerator
    duplicateTexture(source:Texture2D) : Texture2D
}
"Singleton`1" "<Singleton_SpriteUploader>" <|- - Singleton_SpriteUploader
class TextureToBase64Tool {
    - m_texture : Texture2D
    - m_encodedData : string = ""
    + {static} Texture2DToBase64(texture:Texture2D) : string
    + {static} Base64ToTexture2D(encodedData:string) : Texture2D
    - {static} GetImageSize(imageData:byte[], width:int, height:int) : void
    - {static} ReadInt(imageData:byte[], offset:int) : int
}
MonoBehaviour <|- - TextureToBase64Tool
@enduml

PlantUML version 1.2022.0(Tue Jan 11 17:16:42 CET 2022)
(GPL source distribution)
Java Runtime: Java(TM) SE Runtime Environment
JVM: Java HotSpot(TM) 64-Bit Server VM
Default Encoding: Cp1252
Language: en
Country: US
--></g></svg>